////////////////////Polynome///////////////// : 
nbr cycles  1403681784
nbr secondes:  0
nbr millisecondes: 453
CPI= 14.0368
IPC= 0.0712412
////////////////////polynomeOpti///////////////// : 
nbr cycles  1042575776
nbr secondes:  0
nbr millisecondes: 337
CPI= 10.4258
IPC= 0.0959163


dès le premier polynome je n'utilse pas d'appelle à une fonction unitule ou je n'appelle pas plusieurs fois .size() mais cependant on peut toujours améliorer notre code en déroulant notre boucle. 