1) 2*n*n < M donc la compléxité dans le meilleur cas est de O(2*([n*n/B]) + 1) [] = partie entière
2) 
3) M >= (n+1)B donc MT(n) optimal = O(n²/B) 
4) notre cache = 32768 octects M = 32768
			       B = 64 
 En sachant que un duble prend 8 octets alors le nombre de doubles optimal par ligne dans le cache est 8 donc n = 8.
nbr cycles  147
nbr secondes:  0
nbr millisecondes: 4.4e-05
CPI= 2.3023
IPC= 4.34349e-13


5)
////////////////////transposeNaif///////////////// : 
nbr cycles  66
nbr secondes:  0
nbr millisecondes: 2.16e-05
CPI= 1.04441
IPC= 9.57478e-15
////////////////////transposeNaif///////////////// : 
nbr cycles  64
nbr secondes:  0
nbr millisecondes: 2.07e-05
CPI= 1.0006
IPC= 9.99405e-15
